^C:\USERS\MAGSHIMIM\DESKTOP\מגשימים - שנה ב\עקרונות מתקדמים\16\1\HW16_ALMOGBAR\HW16_ALMOGBAR\STDAFX.CPP
C:\USERS\MAGSHIMIM\DESKTOP\מגשימים - שנה ב\עקרונות מתקדמים\16\1\HW16_ALMOGBAR\HW16_ALMOGBAR\RELEASE\HW16_ALMOGBAR.PCH
C:\USERS\MAGSHIMIM\DESKTOP\מגשימים - שנה ב\עקרונות מתקדמים\16\1\HW16_ALMOGBAR\HW16_ALMOGBAR\RELEASE\VC141.PDB
C:\USERS\MAGSHIMIM\DESKTOP\מגשימים - שנה ב\עקרונות מתקדמים\16\1\HW16_ALMOGBAR\HW16_ALMOGBAR\RELEASE\STDAFX.OBJ
^C:\USERS\MAGSHIMIM\DESKTOP\מגשימים - שנה ב\עקרונות מתקדמים\16\1\HW16_ALMOGBAR\HW16_ALMOGBAR\SQLITE3.C
C:\USERS\MAGSHIMIM\DESKTOP\מגשימים - שנה ב\עקרונות מתקדמים\16\1\HW16_ALMOGBAR\HW16_ALMOGBAR\RELEASE\VC141.PDB
C:\USERS\MAGSHIMIM\DESKTOP\מגשימים - שנה ב\עקרונות מתקדמים\16\1\HW16_ALMOGBAR\HW16_ALMOGBAR\RELEASE\SQLITE3.OBJ
^C:\USERS\MAGSHIMIM\DESKTOP\מגשימים - שנה ב\עקרונות מתקדמים\16\1\HW16_ALMOGBAR\HW16_ALMOGBAR\HW16_ALMOGBAR.CPP|C:\USERS\MAGSHIMIM\DESKTOP\מגשימים - שנה ב\עקרונות מתקדמים\16\1\HW16_ALMOGBAR\HW16_ALMOGBAR\SOURCEB.CPP
C:\USERS\MAGSHIMIM\DESKTOP\מגשימים - שנה ב\עקרונות מתקדמים\16\1\HW16_ALMOGBAR\HW16_ALMOGBAR\RELEASE\VC141.PDB
C:\USERS\MAGSHIMIM\DESKTOP\מגשימים - שנה ב\עקרונות מתקדמים\16\1\HW16_ALMOGBAR\HW16_ALMOGBAR\RELEASE\SOURCEB.OBJ
C:\USERS\MAGSHIMIM\DESKTOP\מגשימים - שנה ב\עקרונות מתקדמים\16\1\HW16_ALMOGBAR\HW16_ALMOGBAR\RELEASE\HW16_ALMOGBAR.OBJ
^C:\USERS\MAGSHIMIM\DESKTOP\מגשימים - שנה ב\עקרונות מתקדמים\16\1\HW16_ALMOGBAR\HW16_ALMOGBAR\HW16_ALMOGBAR.CPP
C:\USERS\MAGSHIMIM\DESKTOP\מגשימים - שנה ב\עקרונות מתקדמים\16\1\HW16_ALMOGBAR\HW16_ALMOGBAR\RELEASE\VC141.PDB
^C:\USERS\MAGSHIMIM\DESKTOP\מגשימים - שנה ב\עקרונות מתקדמים\16\1\HW16_ALMOGBAR\HW16_ALMOGBAR\SOURCEB.CPP
C:\USERS\MAGSHIMIM\DESKTOP\מגשימים - שנה ב\עקרונות מתקדמים\16\1\HW16_ALMOGBAR\HW16_ALMOGBAR\RELEASE\VC141.PDB
C:\USERS\MAGSHIMIM\DESKTOP\מגשימים - שנה ב\עקרונות מתקדמים\16\1\HW16_ALMOGBAR\HW16_ALMOGBAR\RELEASE\SOURCEB.OBJ
